{
    "env": {
        "name": "prod"
    },
    "api": {
        "url_base": "https://learningml.org",
        "path": "/projects/"
    },
    "web": {
        "url_base": "https://web.learningml.org"
    },
    "scratch": {
        "url": "https://learningml.org/scratch",
        "domain": "https://learningml.org"
    },
    "easyml": {
        "url": "https://learningml.org/editor",
        "domain": "https://learningml.org"
    }
}